{
    "name": "reshma",
    "place": {
        "d.no": "11-54",
        "area": "kakinada",
        "district": "east godavari",
        "state": "AP"
    },
    "ph.no": "8247475053",
    "fav": [
        "sports",
        "art"
    ]
}